{
  "dev": {
    "awscloudformation": {
      "AuthRoleName": "amplify-gmfrontapistructure-dev-91546-authRole",
      "UnauthRoleArn": "arn:aws:iam::803285291612:role/amplify-gmfrontapistructure-dev-91546-unauthRole",
      "AuthRoleArn": "arn:aws:iam::803285291612:role/amplify-gmfrontapistructure-dev-91546-authRole",
      "Region": "eu-west-1",
      "DeploymentBucketName": "amplify-gmfrontapistructure-dev-91546-deployment",
      "UnauthRoleName": "amplify-gmfrontapistructure-dev-91546-unauthRole",
      "StackName": "amplify-gmfrontapistructure-dev-91546",
      "StackId": "arn:aws:cloudformation:eu-west-1:803285291612:stack/amplify-gmfrontapistructure-dev-91546/05b094b0-91c7-11eb-972a-0a8f8caba6c5",
      "AmplifyAppId": "dd5aitz8uo4f6"
    },
    "categories": {
      "auth": {
        "gmfrontapistructure9a4d1fa0": {}
      },
      "function": {
        "userprofilesfunction": {
          "deploymentBucketName": "amplify-gmfrontapistructure-dev-91546-deployment",
          "s3Key": "amplify-builds/userprofilesfunction-4b7175372f2f39724568-build.zip"
        },
        "gitloginfunction": {
          "deploymentBucketName": "amplify-gmfrontapistructure-dev-91546-deployment",
          "s3Key": "amplify-builds/gitloginfunction-4539596f704d46746676-build.zip"
        },
        "gitregisterfunction": {
          "deploymentBucketName": "amplify-gmfrontapistructure-dev-91546-deployment",
          "s3Key": "amplify-builds/gitregisterfunction-4f4a4e67567534393246-build.zip"
        },
        "gitforgotpwdfunction": {
          "deploymentBucketName": "amplify-gmfrontapistructure-dev-91546-deployment",
          "s3Key": "amplify-builds/gitforgotpwdfunction-3077764a356b5676794b-build.zip"
        },
        "getuserprofilefunction": {
          "deploymentBucketName": "amplify-gmfrontapistructure-dev-91546-deployment",
          "s3Key": "amplify-builds/getuserprofilefunction-587a336b334352354a58-build.zip"
        },
        "gitchangepwdfunction": {
          "deploymentBucketName": "amplify-gmfrontapistructure-dev-91546-deployment",
          "s3Key": "amplify-builds/gitchangepwdfunction-77504363555a304a7176-build.zip"
        },
        "imagesfunction": {
          "deploymentBucketName": "amplify-gmfrontapistructure-dev-91546-deployment",
          "s3Key": "amplify-builds/imagesfunction-5043534262504e4f6b55-build.zip"
        },
        "menufunction": {
          "deploymentBucketName": "amplify-gmfrontapistructure-dev-91546-deployment",
          "s3Key": "amplify-builds/menufunction-6b5138535053796a4256-build.zip"
        }
      }
    }
  }
}